ai\yunxi\mall\product\domain\entity\TbCategoryExample$Criteria.class
ai\yunxi\mall\product\domain\entity\TbProductDescExample$Criteria.class
ai\yunxi\mall\product\domain\entity\TbProductLogExample$GeneratedCriteria.class
ai\yunxi\mall\product\domain\entity\TbCategoryExample$GeneratedCriteria.class
ai\yunxi\mall\product\domain\entity\TbProductLogExample$Criterion.class
ai\yunxi\mall\product\domain\entity\TbProductDesc.class
ai\yunxi\mall\product\domain\entity\TbProduct.class
ai\yunxi\mall\product\domain\entity\TbProductStock.class
ai\yunxi\mall\product\domain\entity\TbProductStockExample$Criteria.class
ai\yunxi\mall\product\domain\entity\TbProductDescExample.class
ai\yunxi\mall\product\domain\entity\TbProductExample$Criterion.class
ai\yunxi\mall\product\domain\entity\TbProductDescExample$GeneratedCriteria.class
ai\yunxi\mall\product\domain\entity\TbProductStockExample$GeneratedCriteria.class
ai\yunxi\mall\product\domain\entity\TbProductExample.class
ai\yunxi\mall\product\domain\entity\TbProductStockExample.class
ai\yunxi\mall\product\domain\entity\TbCategoryExample.class
ai\yunxi\mall\product\domain\entity\TbProductLogExample$Criteria.class
ai\yunxi\mall\product\domain\entity\TbProductLog.class
ai\yunxi\mall\product\domain\entity\TbCategoryExample$Criterion.class
ai\yunxi\mall\product\domain\entity\TbProductExample$Criteria.class
ai\yunxi\mall\product\domain\entity\TbProductExample$GeneratedCriteria.class
ai\yunxi\mall\product\domain\entity\TbProductDescExample$Criterion.class
ai\yunxi\mall\product\domain\entity\TbProductStockExample$Criterion.class
ai\yunxi\mall\product\domain\entity\TbProductLogExample.class
ai\yunxi\mall\product\domain\entity\TbCategory.class
