ai\yunxi\mall\content\service\dto\Panel.class
ai\yunxi\mall\content\service\dto\AllGoodsResult.class
ai\yunxi\mall\content\service\dto\PanelContent.class
ai\yunxi\mall\content\service\PanelService.class
ai\yunxi\mall\content\service\ContentService.class
