{
  "shopping_mall": {
    "aliases": {},
    "mappings": {
      "product": {
        "dynamic": "strict",
        "properties": {
          "id": {
            "type": "long"
          },
          "title": {
            "type": "text",
            "fields": {
              "keyword": {
                "type": "keyword",
                "ignore_above": 256
              }
            }
          },
          "subTitle": {
            "type": "text",
            "fields": {
              "keyword": {
                "type": "keyword",
                "ignore_above": 256
              }
            }
          },
          "price": {
            "type": "float"
          },
          "image": {
            "type": "text",
            "fields": {
              "keyword": {
                "type": "keyword",
                "ignore_above": 256
              }
            }
          },
          "categoryId": {
            "type": "long"
          },
          "created": {
            "type": "date"
          },
          "updated": {
            "type": "date"
          },
          "description": {
            "type": "text",
            "fields": {
              "keyword": {
                "type": "keyword",
                "ignore_above": 256
              }
            }
          }
        }
      }
    },
    "settings": {
      "index": {
        "number_of_shards": "5",
        "number_of_replicas": "1"
      }
    }
  }
}
