E:\shopping-mall\mall-core\mall-core-interface\src\main\java\ai\yunxi\mall\core\service\ManagerService.java
E:\shopping-mall\mall-core\mall-core-interface\src\main\java\ai\yunxi\mall\core\service\OrderService.java
E:\shopping-mall\mall-core\mall-core-interface\src\main\java\ai\yunxi\mall\core\service\OrderMessageService.java
E:\shopping-mall\mall-core\mall-core-interface\src\main\java\ai\yunxi\mall\core\service\ExpressService.java
E:\shopping-mall\mall-core\mall-core-interface\src\main\java\ai\yunxi\mall\core\service\DelayQueueService.java
E:\shopping-mall\mall-core\mall-core-interface\src\main\java\ai\yunxi\mall\core\service\dto\Cart.java
E:\shopping-mall\mall-core\mall-core-interface\src\main\java\ai\yunxi\mall\core\service\SystemService.java
E:\shopping-mall\mall-core\mall-core-interface\src\main\java\ai\yunxi\mall\core\service\dto\Permission.java
E:\shopping-mall\mall-core\mall-core-interface\src\main\java\ai\yunxi\mall\core\service\dto\CommonDto.java
E:\shopping-mall\mall-core\mall-core-interface\src\main\java\ai\yunxi\mall\core\service\dto\OrderChartData.java
E:\shopping-mall\mall-core\mall-core-interface\src\main\java\ai\yunxi\mall\core\service\dto\OrderUser.java
E:\shopping-mall\mall-core\mall-core-interface\src\main\java\ai\yunxi\mall\core\service\CountService.java
E:\shopping-mall\mall-core\mall-core-interface\src\main\java\ai\yunxi\mall\core\service\UserOrderService.java
E:\shopping-mall\mall-core\mall-core-interface\src\main\java\ai\yunxi\mall\core\service\dto\ShiroFilter.java
E:\shopping-mall\mall-core\mall-core-interface\src\main\java\ai\yunxi\mall\core\service\dto\Dict.java
E:\shopping-mall\mall-core\mall-core-interface\src\main\java\ai\yunxi\mall\core\service\dto\Base.java
E:\shopping-mall\mall-core\mall-core-interface\src\main\java\ai\yunxi\mall\core\service\dto\OrderShipping.java
E:\shopping-mall\mall-core\mall-core-interface\src\main\java\ai\yunxi\mall\core\service\dto\Manager.java
E:\shopping-mall\mall-core\mall-core-interface\src\main\java\ai\yunxi\mall\core\service\dto\CartItem.java
E:\shopping-mall\mall-core\mall-core-interface\src\main\java\ai\yunxi\mall\core\service\dto\OrderItem.java
E:\shopping-mall\mall-core\mall-core-interface\src\main\java\ai\yunxi\mall\core\service\dto\PageOrder.java
E:\shopping-mall\mall-core\mall-core-interface\src\main\java\ai\yunxi\mall\core\service\dto\Order.java
E:\shopping-mall\mall-core\mall-core-interface\src\main\java\ai\yunxi\mall\core\service\dto\Role.java
E:\shopping-mall\mall-core\mall-core-interface\src\main\java\ai\yunxi\mall\core\service\dto\ChartData.java
E:\shopping-mall\mall-core\mall-core-interface\src\main\java\ai\yunxi\mall\core\service\dto\Express.java
E:\shopping-mall\mall-core\mall-core-interface\src\main\java\ai\yunxi\mall\core\service\CartService.java
