ai\yunxi\mall\index\service\dto\SearchResult.class
ai\yunxi\mall\index\service\DictService.class
ai\yunxi\mall\index\service\dto\IndexInfo.class
ai\yunxi\mall\index\service\SearchProductService.class
ai\yunxi\mall\index\service\dto\SearchItem.class
