E:\shopping-mall\mall-core\mall-core-entity\src\main\java\ai\yunxi\mall\core\domain\entity\TbExpressExample.java
E:\shopping-mall\mall-core\mall-core-entity\src\main\java\ai\yunxi\mall\core\domain\entity\TbLogExample.java
E:\shopping-mall\mall-core\mall-core-entity\src\main\java\ai\yunxi\mall\core\domain\entity\TbOrder.java
E:\shopping-mall\mall-core\mall-core-entity\src\main\java\ai\yunxi\mall\core\domain\entity\TbShiroFilter.java
E:\shopping-mall\mall-core\mall-core-entity\src\main\java\ai\yunxi\mall\core\domain\entity\TbPermission.java
E:\shopping-mall\mall-core\mall-core-entity\src\main\java\ai\yunxi\mall\core\domain\entity\TbOrderItem.java
E:\shopping-mall\mall-core\mall-core-entity\src\main\java\ai\yunxi\mall\core\domain\entity\TbRolePerm.java
E:\shopping-mall\mall-core\mall-core-entity\src\main\java\ai\yunxi\mall\core\domain\entity\TbRole.java
E:\shopping-mall\mall-core\mall-core-entity\src\main\java\ai\yunxi\mall\core\domain\entity\TbOrderShippingExample.java
E:\shopping-mall\mall-core\mall-core-entity\src\main\java\ai\yunxi\mall\core\domain\entity\TbRolePermExample.java
E:\shopping-mall\mall-core\mall-core-entity\src\main\java\ai\yunxi\mall\core\domain\entity\TbCartExample.java
E:\shopping-mall\mall-core\mall-core-entity\src\main\java\ai\yunxi\mall\core\domain\entity\TbManagerExample.java
E:\shopping-mall\mall-core\mall-core-entity\src\main\java\ai\yunxi\mall\core\domain\entity\TbShiroFilterExample.java
E:\shopping-mall\mall-core\mall-core-entity\src\main\java\ai\yunxi\mall\core\domain\entity\TbRoleExample.java
E:\shopping-mall\mall-core\mall-core-entity\src\main\java\ai\yunxi\mall\core\domain\entity\TbBase.java
E:\shopping-mall\mall-core\mall-core-entity\src\main\java\ai\yunxi\mall\core\domain\entity\TbExpress.java
E:\shopping-mall\mall-core\mall-core-entity\src\main\java\ai\yunxi\mall\core\domain\entity\TbOrderExample.java
E:\shopping-mall\mall-core\mall-core-entity\src\main\java\ai\yunxi\mall\core\domain\entity\TbOrderShipping.java
E:\shopping-mall\mall-core\mall-core-entity\src\main\java\ai\yunxi\mall\core\domain\entity\TbCart.java
E:\shopping-mall\mall-core\mall-core-entity\src\main\java\ai\yunxi\mall\core\domain\entity\TbManager.java
E:\shopping-mall\mall-core\mall-core-entity\src\main\java\ai\yunxi\mall\core\domain\entity\TbBaseExample.java
E:\shopping-mall\mall-core\mall-core-entity\src\main\java\ai\yunxi\mall\core\domain\entity\TbLog.java
E:\shopping-mall\mall-core\mall-core-entity\src\main\java\ai\yunxi\mall\core\domain\entity\TbPermissionExample.java
E:\shopping-mall\mall-core\mall-core-entity\src\main\java\ai\yunxi\mall\core\domain\entity\TbOrderItemExample.java
